<svg id="Component_227_1" data-name="Component 227 – 1" xmlns="http://www.w3.org/2000/svg" xmlns:xlink="http://www.w3.org/1999/xlink" width="325" height="189" viewBox="0 0 325 189">
  <defs>
    <clipPath id="clip-path">
      <rect id="Rectangle_2256" data-name="Rectangle 2256" width="325" height="189" fill="#fff" stroke="#707070" stroke-width="1"/>
    </clipPath>
    <linearGradient id="linear-gradient" x1="0.5" x2="0.5" y2="1" gradientUnits="objectBoundingBox">
      <stop offset="0" stop-color="#5ea94c"/>
      <stop offset="1" stop-color="#1e9aa1"/>
    </linearGradient>
  </defs>
  <g id="Mask_Group_112" data-name="Mask Group 112" clip-path="url(#clip-path)">
    <g id="Group_3571" data-name="Group 3571" transform="translate(-536.214 -477.708)">
      <path id="Path_318" data-name="Path 318" d="M417.758,14c119.846,2.72,81.736,1.871,144.675,46.645s100.907,110.814-4.837,257.1-56.289,174.431-252.783,357.97S15.04,497.836,12.283,375.979C10.165,282.394,168.924,117.2,305.2,47.072,346.523,25.8,385.687,13.268,417.758,14Z" transform="translate(474.488 0) rotate(43)" fill="url(#linear-gradient)"/>
    </g>
  </g>
</svg>
